%YAML 1.1
%TAG !u! tag:unity3d.com,2011:
--- !u!1045 &1
EditorBuildSettings:
  m_ObjectHideFlags: 0
  serializedVersion: 2
  m_Scenes:
  - enabled: 1
    path: Assets/Scenes/menu_scene.unity
  - enabled: 1
    path: Assets/Scenes/main_scene.unity
  - enabled: 1
    path: Assets/Scenes/level_2.unity
  - enabled: 1
    path: Assets/Scenes/level_3.unity
  - enabled: 1
    path: Assets/Scenes/final_score.unity
